Cluster_ID;codnas3_ID;Model_ID;RMSD_Mammoth;Number_of_res_align;maxRMSD;methods;pair
0;1A3R_L;1A3R_L_64c56_relaxed_model_5;0.87;219.0;2.05;X-RAY DIFFRACTION..X-RAY DIFFRACTION;1A3R_L..1BBD_L
1;1JPT_H;1JPT_H_tes_ab53b_relaxed_model_3;1.68;211.0;5.48;X-RAY DIFFRACTION..X-RAY DIFFRACTION;1JPS_H..1PG7_H
2;1A14_H;1A14_H_49749_relaxed_model_3;0.63;106.0;0.41;X-RAY DIFFRACTION..X-RAY DIFFRACTION;1A14_H..1NMC_H
3;1A8K_A;1A8K_A_tes_4fdd7_relaxed_model_1;;;2.12;X-RAY DIFFRACTION..X-RAY DIFFRACTION;3KDB_B..3I8W_A
4;1BEC_A;1BEC_A_97bcf_relaxed_model_3;2.6;235.0;2.28;X-RAY DIFFRACTION..X-RAY DIFFRACTION;1L0X_C..1JCK_A
5;1EMF_A;1EMF_A_1b8d3_relaxed_model_2;0.34;221.0;0.46;X-RAY DIFFRACTION..X-RAY DIFFRACTION;1EMF_A..2EMO_A
6;1A1O_A;1A1O_A_8115f_relaxed_model_3;0.9;275.0;0.64;X-RAY DIFFRACTION..X-RAY DIFFRACTION;1A1O_A..1A1M_A
6;5IVX_A;5IVX_A_tes_4db76_relaxed_model_2;0.72;170.0;3.21;X-RAY DIFFRACTION..X-RAY DIFFRACTION;5KD7_F..1DDH_A
7;1J8H_D;1J8H_D_tes_a7798_relaxed_model_5;3.08;173.0;0.33;X-RAY DIFFRACTION..X-RAY DIFFRACTION;1J8H_D..1FYT_D
8;1AGP_A;1AGP_A_68480_relaxed_model_1;0.6;165.0;0.54;X-RAY DIFFRACTION..X-RAY DIFFRACTION;1AGP_A..6ZJ0_A
9;1CAK_A;1CAK_A_6769a_relaxed_model_3;0.54;258.0;0.11;X-RAY DIFFRACTION..X-RAY DIFFRACTION;1CAK_A..1CAZ_A
10;1EET_A;1EET_A_tes_e38b6_relaxed_model_1;1.36;164.0;6.45;X-RAY DIFFRACTION..X-RAY DIFFRACTION;1IKW_A..3ITH_A
11;1AY1_H;1AY1_H_408aa_relaxed_model_1;1.09;212.0;1.54;X-RAY DIFFRACTION..X-RAY DIFFRACTION;1AY1_H..1BGX_H
12;1A0U_B;1A0U_A_79843_relaxed_model_4;0.41;145.0;0.49;X-RAY DIFFRACTION..X-RAY DIFFRACTION;1A0U_B..1O1L_D
13;1JSI_B;1JSI_B_tes_e83e0_relaxed_model_3;13.99;140.0;0.12;X-RAY DIFFRACTION..X-RAY DIFFRACTION;1JSI_B..1JSD_B
14;1HSY_A;1HSY_A_9e481_relaxed_model_2;0.71;152.0;0.17;X-RAY DIFFRACTION..X-RAY DIFFRACTION;1HSY_A..1BJE_A
15;1A14_L;1A14_L_tes_cd49d_relaxed_model_1;0.46;104.0;0.46;X-RAY DIFFRACTION..X-RAY DIFFRACTION;1A14_L..1NMC_L
16;150L_A;150L_A_tes_edc32_relaxed_model_4;0.65;163.0;2.58;X-RAY DIFFRACTION..X-RAY DIFFRACTION;150L_D..256L_A
17;1BUE_A;1BUE_A_9e481_relaxed_model_4;14.71;137.0;0.18;X-RAY DIFFRACTION..X-RAY DIFFRACTION;1BUE_A..1BUL_A
18;1JSN_A;1JSN_A_tes_d6777_relaxed_model_1;11.82;175.0;0.29;X-RAY DIFFRACTION..X-RAY DIFFRACTION;1JSN_A..1JSM_A
19;1G08_A;1G08_A_tes_ee285_relaxed_model_1;0.52;140.0;0.9;X-RAY DIFFRACTION..X-RAY DIFFRACTION;1HDA_A..3CIU_A
20;1FTK_A;1FTK_A_9d48b_relaxed_model_4;0.46;250.0;0.11;X-RAY DIFFRACTION..X-RAY DIFFRACTION;1FTK_A..1GR2_A
21;3L7E_H;3L7E_H_tes_b45ae_relaxed_model_1;2.42;165.0;1.32;X-RAY DIFFRACTION..X-RAY DIFFRACTION;3L5W_H..3L5W_B
22;1AR6_2;1AR6_2_8132f_relaxed_model_4;0.97;216.0;4.57;ELECTRON MICROSCOPY..ELECTRON MICROSCOPY;6Q0B_2..3J8F_2
23;1IGJ_B;1IGJ_B_f813f_relaxed_model_3;3.24;214.0;1.16;X-RAY DIFFRACTION..X-RAY DIFFRACTION;1IGJ_D..1IGI_H
24;1G7K_A;1G7K_A_tes_2a164_relaxed_model_3;0.66;154.0;0.58;X-RAY DIFFRACTION..X-RAY DIFFRACTION;1ZGP_B..1GGX_B
25;1DLH_B;1DLH_B_tes_ca298_relaxed_model_1;1.51;173.0;2.73;X-RAY DIFFRACTION..X-RAY DIFFRACTION;3PDO_B..6CQR_B
26;1HGE_A;1HGE_A_JM_bfa6f_relaxed_model_5;3.96;268.0;0.61;X-RAY DIFFRACTION..X-RAY DIFFRACTION;1HGE_E..1HGD_A
27;1C8M_3;1C8M_3_tes_12689_unrelaxed_model_5;12.6;177.0;0.23;X-RAY DIFFRACTION..X-RAY DIFFRACTION;1ND3_C..1AYN_3
28;2IWG_A;2IWG_A_JM_cccd8_relaxed_model_1;2.89;206.0;4.68;X-RAY DIFFRACTION..X-RAY DIFFRACTION;3SGJ_A..3SGJ_B
29;1DY8_A;1DY8_A_6ce2f_relaxed_model_3;2.09;176.0;2.05;X-RAY DIFFRACTION..X-RAY DIFFRACTION;1DY8_A..4KTC_C
30;1YJ1_A;1YJ1_A_JM_07b00_relaxed_model_3;0.77;71.0;1.05;X-RAY DIFFRACTION..X-RAY DIFFRACTION;2FCM_A..2FCM_B
31;2FSL_X;2FSL_X_7e273_relaxed_model_4;1.6;331.0;0.94;X-RAY DIFFRACTION..X-RAY DIFFRACTION;2FSL_X..2FSM_X
32;1JVX_A;1JVX_A_JM_e381c_relaxed_model_2;0.7;370.0;0.66;X-RAY DIFFRACTION..X-RAY DIFFRACTION;1JVX_A..1JVY_A
33;1RYP_L;1RYP_L_a3c90_relaxed_model_2;0.43;211.0;0.48;X-RAY DIFFRACTION..X-RAY DIFFRACTION;1RYP_L..1FNT_L
34;1UTJ_A;1UTJ_A_c2256_relaxed_model_3;0.4;222.0;0.56;X-RAY DIFFRACTION..X-RAY DIFFRACTION;1UTJ_A..1UTM_A
35;1YZ5_A;1YZ5_A_1c8f8_unrelaxed_model_1;0.98;222.0;1.9;X-RAY DIFFRACTION..X-RAY DIFFRACTION;4FL5_B..5OEG_A
36;1F1A_A;1F1A_A_tes_274ba_unrelaxed_model_3;0.39;153.0;0.88;X-RAY DIFFRACTION..X-RAY DIFFRACTION;1SDY_B..1JK9_A
37;1SVZ_A;1SVZ_A_e80f3_relaxed_model_1;0.5;231.0;0.61;X-RAY DIFFRACTION..X-RAY DIFFRACTION;1SVZ_A..1SVZ_B
38;1I33_A;1I33_A_ee074_relaxed_model_2;0.78;355.0;0.76;X-RAY DIFFRACTION..X-RAY DIFFRACTION;1I33_C..1A7K_D
39;1F4X_L;1F4X_L_e4f00_relaxed_model_5;0.91;209.0;0.24;X-RAY DIFFRACTION..X-RAY DIFFRACTION;1F4X_L..1F4W_L
40;1JTG_A;1JTG_A_b6459_relaxed_model_1;0.36;261.0;0.78;X-RAY DIFFRACTION..X-RAY DIFFRACTION;3C7V_C..1BTL_A
41;1FPU_A;1FPU_A_b52d4_relaxed_model_5;4.86;272.0;5.76;X-RAY DIFFRACTION..X-RAY DIFFRACTION;1OPJ_B..3KF4_A
42;1OS5_A;1OS5_A_EG_67131_relaxed_model_2;2.08;558.0;0.38;X-RAY DIFFRACTION..X-RAY DIFFRACTION;1OS5_A..2HAI_A
43;3A3C_A;3A3C_A_EG_97c38_relaxed_model_5;9.14;444.0;0.57;X-RAY DIFFRACTION..X-RAY DIFFRACTION;3A3C_A..2ZXT_A
44;1AS3_A;1AS3_A_EG_6f8f6_relaxed_model_5;6.53;327.0;1.42;X-RAY DIFFRACTION..X-RAY DIFFRACTION;1AS2_A..1AS0_A
45;1A58_A;1A58_A_EG_2d541_relaxed_model_1;1.1;176.0;0.49;X-RAY DIFFRACTION..X-RAY DIFFRACTION;1A58_A..1C5F_A
46;1RUH_4;1RUH_4_60413_relaxed_model_5;4.92;37.0;0.85;X-RAY DIFFRACTION..X-RAY DIFFRACTION;1K5M_D..1RVF_4
47;1AWX_A;1AWX_A_EG_835dd_relaxed_model_5;1.81;67.0;6.13;SOLUTION NMR..SOLUTION NMR;1AWW-11_A..1AWW-20_A
48;1A2B_A;1A2B_A_f5ea6_relaxed_model_1;0.45;177.0;0.46;X-RAY DIFFRACTION..X-RAY DIFFRACTION;1A2B_A..1CXZ_A
49;1XOG_A;1XOG_A_5e118_relaxed_model_3;1.76;385.0;0.53;X-RAY DIFFRACTION..X-RAY DIFFRACTION;1XOG_A..1NMC_N
50;2F54_B;2F54_B_541bd_relaxed_model_2;0.91;99.0;0.88;X-RAY DIFFRACTION..X-RAY DIFFRACTION;2F54_B..1AO7_B
51;1R03_A;1R03_A_f9360_relaxed_model_2;0.38;170.0;0.37;X-RAY DIFFRACTION..X-RAY DIFFRACTION;5Z8U_A..5Z91_A
53;1ID3_D;1ID3_D_a102b_relaxed_model_1;0.92;93.0;0.7;X-RAY DIFFRACTION..X-RAY DIFFRACTION;1ID3_H..4JJN_D
55;1M19_A;1M19_A_5ad8d_relaxed_model_3;0.59;99.0;0.58;X-RAY DIFFRACTION..X-RAY DIFFRACTION;1M19_A..1M1A_A
56;1AHE_A;1AHE_A_b637a_relaxed_model_1;0.58;395.0;0.41;X-RAY DIFFRACTION..X-RAY DIFFRACTION;1AHF_B..1AHX_A
57;1A3W_A;1A3W_A_tes_93596_relaxed_model_2;1.28;492.0;1.0;X-RAY DIFFRACTION..X-RAY DIFFRACTION;1A3W_A..1A3X_B
59;1A4H_A;1A4H_A_4ddf1_relaxed_model_1;0.92;213.0;1.14;X-RAY DIFFRACTION..X-RAY DIFFRACTION;2WER_A..1AH8_B
60;1YQO_A;1YQO_A_tes_00c86_relaxed_model_1;0.65;440.0;0.76;X-RAY DIFFRACTION..X-RAY DIFFRACTION;1YQO_B..1FAH_A
61;1G9M_G;1G9M_G_4a6bf_relaxed_model_1;1.34;304.0;0.46;X-RAY DIFFRACTION..X-RAY DIFFRACTION;1G9M_G..1RZJ_G
62;1I38_A;1I38_A_6aaad_relaxed_model_1;0.73;245.0;1.1;X-RAY DIFFRACTION..X-RAY DIFFRACTION;1XNN_A..2OZ7_A
63;1BEJ_A;1BEJ_A_49a5c_relaxed_model_2;0.36;290.0;1.28;X-RAY DIFFRACTION..X-RAY DIFFRACTION;2RBU_X..1AET_A
64;1JWK_A;1JWK_A_64ad6_relaxed_model_4;0.69;412.0;7.58;X-RAY DIFFRACTION..X-RAY DIFFRACTION;3E7I_A..3E65_B
65;1A3D_A;1A3D_A_9dc08_relaxed_model_2;0.58;118.0;0.62;X-RAY DIFFRACTION..X-RAY DIFFRACTION;1A3D_A..1PSH_C
66;1CLM_A;1CLM_A_64eff_relaxed_model_1;1.88;143.0;16.4;X-RAY DIFFRACTION..X-RAY DIFFRACTION;5E1N_A..1N0Y_B
67;1EY5_A;1EY5_A_99012_relaxed_model_4;0.67;134.0;0.23;X-RAY DIFFRACTION..X-RAY DIFFRACTION;1EY5_A..1EZ8_A
68;1TZY_A;1TZY_A_4e6fb_relaxed_model_5;0.79;105.0;5.92;X-RAY DIFFRACTION..X-RAY DIFFRACTION;1EQZ_A..1EQZ_E
69;1LVO_A;1LVO_A_47be4_unrelaxed_model_3;1.28;298.0;1.02;X-RAY DIFFRACTION..X-RAY DIFFRACTION;1P9U_E..2AMP_B
70;1HH9_B;1HH9_B_52254_relaxed_model_3;3.58;211.0;0.93;X-RAY DIFFRACTION..X-RAY DIFFRACTION;1HH9_B..1CFS_B
71;1FD6_A;1FD6_A_58517_relaxed_model_3;0.87;57.0;2.78;SOLUTION NMR..SOLUTION NMR;5UBS-8_A..1FCL-16_A
72;1BM5_A;1BM5_A_47a13_relaxed_model_5;1.32;137.0;1.69;SOLUTION NMR..X-RAY DIFFRACTION;1BM5-11_A..1XCA_A
73;2E8A_A;2E8A_A_JNN_27953_relaxed_model_1;1.02;379.0;4.04;X-RAY DIFFRACTION..X-RAY DIFFRACTION;3AY9_A..3D2F_D
74;1A7R_L;1A7R_L_a01f7_relaxed_model_3;0.44;106.0;0.09;X-RAY DIFFRACTION..X-RAY DIFFRACTION;1A7R_L..1A7N_L
75;2JJ1_A;2JJ1_A_ace5b_unrelaxed_model_5;1.1;486.0;11.78;ELECTRON MICROSCOPY..ELECTRON MICROSCOPY;6ZPO_A..6ZIT_C
76;1H96_A;1H96_A_beab6_relaxed_model_2;0.42;166.0;0.07;X-RAY DIFFRACTION..X-RAY DIFFRACTION;1H96_A..1LB3_A
77;1BHL_A;1BHL_A_1ee4c_relaxed_model_4;1.14;135.0;3.07;X-RAY DIFFRACTION..X-RAY DIFFRACTION;2ITG_A..1BI4_C
78;3VBS_A;3VBS_A_JNN_27afd_relaxed_model_2;9.66;291.0;1.68;X-RAY DIFFRACTION..X-RAY DIFFRACTION;3VBH_A..3VBO_A
79;1HUO_A;1HUO_A_tes_f6719_relaxed_model_2;1.93;324.0;11.51;X-RAY DIFFRACTION..X-RAY DIFFRACTION;2BPG_A..3UXN_B
80;1HTV_B;1HTV_B_500c5_relaxed_model_3;1.44;27.0;12.75;SOLUTION NMR..SOLUTION NMR;5MIZ-2_B..2JV1-12_B
81;1DKJ_A;1DKJ_A_564de_relaxed_model_1;0.55;128.0;0.82;X-RAY DIFFRACTION..X-RAY DIFFRACTION;1DKJ_A..1BQL_Y
82;2BNR_D;2BNR_D_f605b_relaxed_model_5;1.72;200.0;0.77;X-RAY DIFFRACTION..X-RAY DIFFRACTION;2BNR_D..6Q3S_D
83;1P6B_A;1P6B_A_EG_740c0_relaxed_model_5;1.08;330.0;0.31;X-RAY DIFFRACTION..X-RAY DIFFRACTION;1P6B_B..1P6C_A
85;1YYJ_A;1YYJ_A_EG_5b357_relaxed_model_3;2.64;106.0;3.45;SOLUTION NMR..SOLUTION NMR;1YYJ-6_A..1YYX-14_A
86;1JAT_A;1JAT_A_EG_d660c_relaxed_model_1;1.25;150.0;1.25;X-RAY DIFFRACTION..X-RAY DIFFRACTION;1JBB_A..2GMI_A
87;3UNB_H;3UNB_H_EG_9586d_relaxed_model_2;2.44;214.0;0.68;X-RAY DIFFRACTION..X-RAY DIFFRACTION;3UNB_j..3UNE_x
88;1FR1_A;1FR1_A_EG_78945_relaxed_model_5;0.43;360.0;0.55;X-RAY DIFFRACTION..X-RAY DIFFRACTION;1FR1_B..1FR6_A
90;1C3L_A;1C3L_A_c7a49_relaxed_model_1;0.36;273.0;0.24;X-RAY DIFFRACTION..X-RAY DIFFRACTION;1C3L_A..3UNX_A
91;2YEK_A;2YEK_A_54f70_relaxed_model_1;0.37;113.0;0.51;X-RAY DIFFRACTION..X-RAY DIFFRACTION;4AKN_C..2YDW_C
92;1TP7_A;1TP7_A_fbd71_relaxed_model_1;0.79;460.0;1.11;X-RAY DIFFRACTION..X-RAY DIFFRACTION;1TP7_A..4K50_A
93;1FAY_A;1FAY_A_tes_4782e_relaxed_model_4;1.16;236.0;0.42;X-RAY DIFFRACTION..X-RAY DIFFRACTION;1FAY_A..1F9K_A
94;2OGV_A;2OGV_A_EG_d6e7c_relaxed_model_2;1.37;316.0;5.33;X-RAY DIFFRACTION..X-RAY DIFFRACTION;2OGV_A..3LCD_A
95;2F43_B;2F43_B_EG_ed2c0_relaxed_model_1;;;0.38;X-RAY DIFFRACTION..X-RAY DIFFRACTION;2F43_B..1MAB_B
96;1FKK_A;1FKK_A_EG_ea21f_relaxed_model_1;0.36;106.0;0.69;X-RAY DIFFRACTION..X-RAY DIFFRACTION;1FKK_A..1FKL_A
98;1Q8W_A;1Q8W_A_EG_1b6f2_relaxed_model_2;0.66;337.0;2.53;X-RAY DIFFRACTION..X-RAY DIFFRACTION;3AG9_A..2F7Z_E
99;2XEE_A;2XEE_A_a64ee_unrelaxed_model_4;0.33;156.0;0.71;X-RAY DIFFRACTION..X-RAY DIFFRACTION;2XEE_D..2QYJ_A
100;4CYW_A;4CYW_A_c9adb_unrelaxed_model_2;2.78;317.0;0.94;X-RAY DIFFRACTION..X-RAY DIFFRACTION;4CYV_E..4CZ0_E
101;2XA4_A;2XA4_A_3f734_unrelaxed_model_2;0.55;278.0;0.59;X-RAY DIFFRACTION..X-RAY DIFFRACTION;2XA4_B..6AAJ_A
102;1EE0_A;1EE0_A_1521e_unrelaxed_model_1;;;0.35;X-RAY DIFFRACTION..X-RAY DIFFRACTION;1QLV_A..1QLV_B
103;1H1A_A;1H1A_A_f491b_relaxed_model_2;0.46;191.0;0.8;X-RAY DIFFRACTION..X-RAY DIFFRACTION;1H1A_A..1H1A_B
104;2BMD_A;2BMD_A_7e650_relaxed_model_2;1.18;172.0;1.29;X-RAY DIFFRACTION..X-RAY DIFFRACTION;2BMD_A..2BME_A
105;1AZS_C;1AZS_C_tes_f2134_relaxed_model_4;0.7;338.0;0.97;X-RAY DIFFRACTION..X-RAY DIFFRACTION;1AZT_B..2GVZ_C
106;1MNG_A;1MNG_A_80dd9_relaxed_model_1;0.37;203.0;0.17;X-RAY DIFFRACTION..X-RAY DIFFRACTION;1MNG_B..3MDS_A
107;1OV6_A;1OV6_A_6de9c_relaxed_model_3;1.65;236.0;1.17;X-RAY DIFFRACTION..X-RAY DIFFRACTION;1OV6_C..1OUM_A
108;1B48_A;1B48_A_d8c02_relaxed_model_1;0.8;220.0;0.65;X-RAY DIFFRACTION..X-RAY DIFFRACTION;1B48_A..1B48_B
109;3PK2_A;3PK2_A_54013_relaxed_model_4;0.35;121.0;0.15;X-RAY DIFFRACTION..X-RAY DIFFRACTION;3PK2_A..5WBB_A
110;1RRP_A;1RRP_A_TP_75440_relaxed_model_4;7.91;203.0;14.03;X-RAY DIFFRACTION..X-RAY DIFFRACTION;1RRP_A..3GJ0_B
111;2BZW_A;2BZW_A_8dba9_relaxed_model_3;1.04;144.0;3.36;X-RAY DIFFRACTION..X-RAY DIFFRACTION;3IHC_A..4YK9_F
112;1AFS_A;1AFS_A_JNN_89374_relaxed_model_3;0.74;318.0;2.32;X-RAY DIFFRACTION..X-RAY DIFFRACTION;1LWI_A..1RAL_A
113;4ORG_H;4ORG_H_9a435_unrelaxed_model_4;9.49;238.0;2.38;X-RAY DIFFRACTION..X-RAY DIFFRACTION;4OD3_H..4OD1_H
114;1CI7_A;1CI7_A_AGM_3f5cc_relaxed_model_3;0.67;292.0;0.74;X-RAY DIFFRACTION..X-RAY DIFFRACTION;1CI7_B..1F28_B
115;1AZD_A;1AZD_A_JNN_34bec_relaxed_model_3;1.05;237.0;0.7;X-RAY DIFFRACTION..X-RAY DIFFRACTION;1AZD_A..4P14_A
116;1BUS_A;1BUS_A_1c14f_relaxed_model_4;3.57;57.0;2.61;SOLUTION NMR..SOLUTION NMR;1BUS-3_A..2BUS_A
117;1A6U_L;1A6U_L_0b87c_relaxed_model_4;0.59;107.0;0.82;X-RAY DIFFRACTION..X-RAY DIFFRACTION;1A6V_L..1A6V_N
118;1VPN_A;1VPN_A_JNN_683e5_relaxed_model_2;1.22;282.0;0.78;X-RAY DIFFRACTION..X-RAY DIFFRACTION;1VPN_B..5CQ0_A
119;1MC2_A;1MC2_A_cdd63_relaxed_model_1;0.6;121.0;0.28;X-RAY DIFFRACTION..X-RAY DIFFRACTION;1MC2_A..1MG6_A
120;1ASJ_1;1ASJ_1_AGM_767e3_relaxed_model_3;3.91;274.0;2.99;ELECTRON MICROSCOPY..ELECTRON MICROSCOPY;3JBG_1..6P9O_1
121;1BN7_A;1BN7_A_AGM_f9b7d_relaxed_model_3;0.42;290.0;0.3;X-RAY DIFFRACTION..X-RAY DIFFRACTION;1BN6_A..1CQW_A
122;2TRT_A;2TRT_A_dddeb_relaxed_model_1;1.1;197.0;1.45;X-RAY DIFFRACTION..X-RAY DIFFRACTION;2TRT_A..1QPI_A
123;1SM1_A;1SM1_A_917f2_relaxed_model_2;1.81;263.0;1.87;X-RAY DIFFRACTION..X-RAY DIFFRACTION;1NKW_A..3PIP_A
124;2Q9S_A;2Q9S_A_c8ce6_relaxed_model_1;0.43;130.0;0.28;X-RAY DIFFRACTION..X-RAY DIFFRACTION;2Q9S_A..2QM9_A
125;3HW4_A;3HW4_A_f29b8_relaxed_model_5;0.99;176.0;1.1;X-RAY DIFFRACTION..X-RAY DIFFRACTION;3HW6_C..3EBJ_C
126;2ZL2_A;2ZL2_A_31601_relaxed_model_3;0.42;174.0;0.42;X-RAY DIFFRACTION..X-RAY DIFFRACTION;2ZL3_J..2ZL4_N
127;1D9K_C;1D9K_C_8bb42_relaxed_model_4;0.95;182.0;0.58;X-RAY DIFFRACTION..X-RAY DIFFRACTION;1D9K_C..1D9K_G
128;1L1N_A;1L1N_A_d865c_relaxed_model_2;1.59;179.0;1.7;X-RAY DIFFRACTION..X-RAY DIFFRACTION;1L1N_A..4DCD_A
129;1MJI_A;1MJI_A_6b4f2_relaxed_model_4;2.04;175.0;2.83;X-RAY DIFFRACTION..X-RAY DIFFRACTION;1MJI_A..1MJI_B
130;1F4Z_A;1F4Z_A_3c758_unrelaxed_model_1;0.52;221.0;0.37;X-RAY DIFFRACTION..X-RAY DIFFRACTION;1F4Z_A..1F50_A
131;3N2G_B;3N2G_B_39ef5_unrelaxed_model_3;1.02;418.0;1.7;X-RAY DIFFRACTION..X-RAY DIFFRACTION;3HKD_D..4X20_D
132;3QJY_A;3QJY_A_AgusGM_3c572_relaxed_model_5;2.02;538.0;4.17;X-RAY DIFFRACTION..X-RAY DIFFRACTION;3I4L_A..5X09_A
133;2F49_A;2F49_A_4302f_unrelaxed_model_2;1.27;335.0;1.74;X-RAY DIFFRACTION..X-RAY DIFFRACTION;2FA2_B..2B9F_A
134;2WSF_B;2WSF_B_JNN_442e3_relaxed_model_1;1.97;730.0;0.48;X-RAY DIFFRACTION..X-RAY DIFFRACTION;2WSE_B..3LW5_B
135;3M5H_A;3M5H_A_251ce_unrelaxed_model_2;2.04;289.0;1.81;X-RAY DIFFRACTION..ELECTRON MICROSCOPY;3M5J_E..6MLM_A
136;1CLV_A;1CLV_A_3491e_unrelaxed_model_5;0.59;471.0;0.75;X-RAY DIFFRACTION..X-RAY DIFFRACTION;1TMQ_A..1VIW_A
137;1OO8_A;1OO8_A_d2760_unrelaxed_model_3;0.98;348.0;0.93;X-RAY DIFFRACTION..X-RAY DIFFRACTION;1OO8_A..1OPH_A
138;1OTU_A;1OTU_A_JM_78910_relaxed_model_3;1.8;442.0;0.34;X-RAY DIFFRACTION..X-RAY DIFFRACTION;1OTU_A..2EXY_B
139;2IJO_B;2IJO_B_TP_dd319_relaxed_model_1;4.13;167.0;4.44;X-RAY DIFFRACTION..X-RAY DIFFRACTION;3E90_D..2GGV_B
140;2Y6M_A;2Y6M_A_JNN_476dd_relaxed_model_2;1.24;261.0;1.12;X-RAY DIFFRACTION..X-RAY DIFFRACTION;2HEL_A..2Y6O_A
141;2QFW_A;2QFW_A_JNN_3501c_relaxed_model_4;0.82;406.0;3.13;X-RAY DIFFRACTION..X-RAY DIFFRACTION;2QFV_C..2QFX_F
142;1B1Z_A;1B1Z_A_e87e8_relaxed_model_4;0.71;217.0;0.81;X-RAY DIFFRACTION..X-RAY DIFFRACTION;1UUP_B..1UUP_D
144;1H8Y_A;1H8Y_A_TP_0a1f4_relaxed_model_3;0.94;246.0;1.08;X-RAY DIFFRACTION..X-RAY DIFFRACTION;1H8Y_B..1H5X_A
145;1L2B_A;1L2B_A_49597_relaxed_model_3;0.7;264.0;0.34;X-RAY DIFFRACTION..X-RAY DIFFRACTION;1L2B_A..1L1Z_A
146;2PVJ_A;2PVJ_A_ND_33b9a_relaxed_model_1;0.53;327.0;1.27;X-RAY DIFFRACTION..X-RAY DIFFRACTION;2OXY_A..1F0Q_A
147;1BTI_A;1BTI_A_ND_1e925_unrelaxed_model_1;0.42;57.0;0.41;X-RAY DIFFRACTION..X-RAY DIFFRACTION;1BTI_A..1BPT_A
148;1CLK_A;1CLK_A_ND_90d72_relaxed_model_1;0.49;386.0;0.1;X-RAY DIFFRACTION..X-RAY DIFFRACTION;1CLK_A..1QT1_A
149;1CZP_A;1CZP_A_d7eda_relaxed_model_1;0.34;97.0;0.78;X-RAY DIFFRACTION..X-RAY DIFFRACTION;1CZP_B..1EWY_C
150;1EO6_A;1EO6_A_84005_relaxed_model_3;1.78;115.0;1.97;X-RAY DIFFRACTION..X-RAY DIFFRACTION;1EO6_A..1EO6_B
151;1INX_A;1INX_A_b7631_relaxed_model_5;0.82;339.0;0.55;X-RAY DIFFRACTION..X-RAY DIFFRACTION;1IVD_A..1IVG_A
152;2P3I_A;2P3I_A_87723_relaxed_model_5;0.5;160.0;0.46;X-RAY DIFFRACTION..X-RAY DIFFRACTION;3TB0_A..2P3J_A
153;1C0C_A;1C0C_A_12a6d_relaxed_model_5;1.85;123.0;17.09;X-RAY DIFFRACTION..X-RAY DIFFRACTION;1F0V_A..1A2W_A
154;1B23_P;1B23_P_d367b_relaxed_model_2;1.28;404.0;11.05;X-RAY DIFFRACTION..X-RAY DIFFRACTION;1OB5_A..1TUI_C
155;1BDC_A;1BDC_A_329ab_relaxed_model_2;2.39;60.0;3.37;SOLUTION NMR..SOLUTION NMR;1BDC-8_A..1BDC-10_A
156;1N4H_A;1N4H_A_c771e_relaxed_model_2;0.78;243.0;0.63;X-RAY DIFFRACTION..X-RAY DIFFRACTION;1K4W_A..1NQ7_A
157;1RLU_A;1RLU_A_TP_c0dbb_relaxed_model_2;0.83;304.0;3.23;X-RAY DIFFRACTION..X-RAY DIFFRACTION;5V68_A..5V68_D
158;2WR1_A;2WR1_A_b0d31_unrelaxed_model_1;3.54;486.0;1.01;X-RAY DIFFRACTION..X-RAY DIFFRACTION;2WR1_A..2WR1_C
159;1NMD_A;1NMD_A_78d4f_relaxed_model_1;0.89;361.0;0.21;X-RAY DIFFRACTION..X-RAY DIFFRACTION;1NMD_A..1NLV_A
160;4RAM_A;4RAM_A_a0dfb_relaxed_model_4;3.26;239.0;0.28;X-RAY DIFFRACTION..X-RAY DIFFRACTION;4RAM_A..4RAW_B
161;1I2W_A;1I2W_A_074fd_relaxed_model_2;0.44;255.0;0.29;X-RAY DIFFRACTION..X-RAY DIFFRACTION;1I2W_A..1I2S_B
162;2FLK_A;2FLK_A_79a32_relaxed_model_4;0.41;128.0;1.03;X-RAY DIFFRACTION..X-RAY DIFFRACTION;2FMK_A..2CHE_A
163;1F1B_A;1F1B_A_JNN_0f18e_relaxed_model_4;1.18;307.0;1.89;X-RAY DIFFRACTION..X-RAY DIFFRACTION;1F1B_A..1EZZ_C
164;1HK2_A;1HK2_A_579ff_relaxed_model_1;1.43;559.0;4.26;X-RAY DIFFRACTION..X-RAY DIFFRACTION;1HK2_A..1HK5_A
165;1RQM_A;1RQM_A_JM_074d9_relaxed_model_5;1.52;105.0;2.14;SOLUTION NMR..SOLUTION NMR;1RQM-19_A..1QUW-5_A
166;3JCC_A;3JCC_A_TP_ddae9_relaxed_model_3;2.13;416.0;0.95;ELECTRON MICROSCOPY..ELECTRON MICROSCOPY;3JCC_A..3JCB_A
167;1ONQ_A;1ONQ_A_TP_296ca_relaxed_model_1;1.11;274.0;1.83;X-RAY DIFFRACTION..X-RAY DIFFRACTION;6NUX_A..4X6C_A
168;1FHH_A;1FHH_A_JNN_68869_relaxed_model_1;0.31;52.0;1.46;SOLUTION NMR..X-RAY DIFFRACTION;1BFY-2_A..1T9P_C
169;5WIV_A;5WIV_A_JNN_98438_relaxed_model_1;10.83;374.0;0.32;X-RAY DIFFRACTION..X-RAY DIFFRACTION;5WIV_A..5WIU_A
170;3OIG_A;3OIG_A_ND_3006c_relaxed_model_2;0.84;259.0;0.57;X-RAY DIFFRACTION..X-RAY DIFFRACTION;3OIF_B..3OIF_D
171;1RV4_A;1RV4_A_TP_3c7a6_unrelaxed_model_2;0.73;462.0;1.05;X-RAY DIFFRACTION..X-RAY DIFFRACTION;1LS3_B..1LS3_C
172;1H8O_A;1H8O_A_ND_47084_relaxed_model_4;3.36;218.0;3.98;X-RAY DIFFRACTION..X-RAY DIFFRACTION;1H8O_B..1H8N_A
173;4ZDY_A;4ZDY_A_JNN_cb2bc_relaxed_model_3;2.44;526.0;0.47;X-RAY DIFFRACTION..X-RAY DIFFRACTION;4ZE1_A..4ZE0_A
174;1J9Z_A;1J9Z_A_ND_8e743_relaxed_model_5;0.89;612.0;1.44;X-RAY DIFFRACTION..X-RAY DIFFRACTION;1J9Z_A..1J9Z_B
176;2JC7_A;2JC7_A_b7631_relaxed_model_1;14.03;169.0;0.38;X-RAY DIFFRACTION..X-RAY DIFFRACTION;3FYZ_A..4WM9_A
177;3WN7_A;3WN7_A_3005b_relaxed_model_1;0.43;285.0;0.92;X-RAY DIFFRACTION..X-RAY DIFFRACTION;3WN7_A..5CGJ_A
178;1XDM_A;1XDM_A_3d10e_relaxed_model_5;0.82;302.0;1.29;X-RAY DIFFRACTION..X-RAY DIFFRACTION;1XDM_D..1XDL_A
179;4HUM_B;4HUM_B_111c7_relaxed_model_1;2.13;91.0;0.71;X-RAY DIFFRACTION..X-RAY DIFFRACTION;4HUL_B..5C6P_B
180;1HFU_A;1HFU_A_c42c4_relaxed_model_3;0.46;499.0;0.27;X-RAY DIFFRACTION..X-RAY DIFFRACTION;1HFU_A..1A65_A
181;1COE_A;1COE_A_3afeb_relaxed_model_3;2.36;62.0;2.8;SOLUTION NMR..X-RAY DIFFRACTION;1COE-10_A..1V6P_B
183;1BIX_A;1BIX_A_8bc1a_relaxed_model_3;0.76;274.0;1.59;X-RAY DIFFRACTION..X-RAY DIFFRACTION;3U8U_A..5DFF_A
187;1C5H_A;1C5H_A_eb9b8_relaxed_model_1;0.47;184.0;0.14;X-RAY DIFFRACTION..X-RAY DIFFRACTION;1C5H_A..1C5I_A
188;1A2A_A;1A2A_A_e0a52_relaxed_model_3;0.57;122.0;0.77;X-RAY DIFFRACTION..X-RAY DIFFRACTION;1A2A_A..1BJJ_C
190;1C6R_A;1C6R_A_ec314_relaxed_model_2;0.42;87.0;0.41;X-RAY DIFFRACTION..X-RAY DIFFRACTION;1C6R_A..1C6O_A
192;1AQU_A;1AQU_A_d07bd_relaxed_model_2;0.76;280.0;1.12;X-RAY DIFFRACTION..X-RAY DIFFRACTION;1AQY_A..1BO6_B
193;1NWT_A;1NWT_A_787a8_relaxed_model_2;0.4;342.0;0.91;X-RAY DIFFRACTION..X-RAY DIFFRACTION;1HJX_D..1NWR_B
194;3KHJ_A;3KHJ_A_d5037_relaxed_model_2;0.84;301.0;1.54;X-RAY DIFFRACTION..X-RAY DIFFRACTION;3KHJ_H..4QJ1_D
195;3J80_A;3J80_A_3dfb3_relaxed_model_5;1.03;205.0;1.0;ELECTRON MICROSCOPY..ELECTRON MICROSCOPY;3J80_A..3J81_A
196;3E1Z_B;3E1Z_B_60316_relaxed_model_2;0.43;211.0;1.07;X-RAY DIFFRACTION..X-RAY DIFFRACTION;3LFY_A..6H8T_A
197;1BL8_A;1BL8_A_27a92_relaxed_model_4;1.07;96.0;1.12;X-RAY DIFFRACTION..X-RAY DIFFRACTION;1BL8_D..4UUJ_C
198;2H01_A;2H01_A_6348b_relaxed_model_1;2.51;173.0;0.41;X-RAY DIFFRACTION..X-RAY DIFFRACTION;2H01_A..4L0W_A
199;1N6B_A;1N6B_A_f98ed_relaxed_model_3;1.6;460.0;0.95;X-RAY DIFFRACTION..X-RAY DIFFRACTION;1NR6_A..1DT6_A
200;1EH4_A;1EH4_A_2f58d_relaxed_model_2;0.9;292.0;1.14;X-RAY DIFFRACTION..X-RAY DIFFRACTION;1EH4_B..1CSN_A
201;1LS5_A;1LS5_A_0b013_relaxed_model_3;1.19;327.0;1.08;X-RAY DIFFRACTION..X-RAY DIFFRACTION;1LS5_A..1LS5_B
202;1IOH_A;1IOH_A_06664_relaxed_model_4;1.29;21.0;2.02;SOLUTION NMR..X-RAY DIFFRACTION;1IOH-3_A..1RWE_C
203;1UIS_A;1UIS_A_92bdc_relaxed_model_4;1.39;223.0;0.83;X-RAY DIFFRACTION..X-RAY DIFFRACTION;3E5V_A..3E5T_A
204;2WHG_A;2WHG_A_939ca_relaxed_model_2;0.69;230.0;0.36;X-RAY DIFFRACTION..X-RAY DIFFRACTION;2WHG_A..2WRS_B
208;5Z2Q_B;5Z2Q_B_7c588_relaxed_model_3;1.42;214.0;2.42;X-RAY DIFFRACTION..X-RAY DIFFRACTION;3JUA_G..6SBA_A
209;1OAS_A;1OAS_A_1748e_relaxed_model_1;0.65;314.0;1.34;X-RAY DIFFRACTION..X-RAY DIFFRACTION;1FCJ_A..1FCJ_B
211;1CPS_A;1CPS_A_f5b27_relaxed_model_1;0.63;307.0;0.21;X-RAY DIFFRACTION..X-RAY DIFFRACTION;1CPS_A..1CBX_A
216;1K2H_A;1K2H_A_EG_f0ed9_relaxed_model_3;6.15;92.0;6.35;SOLUTION NMR..SOLUTION NMR;1K2H-4_A..2KBM-19_B
