Apo_ID;Holo_ID;Model_ID;RMSD_vs_Apo;RMSD_vs_Holo
1A6D_A;1A6E_A;1A6D_A_Julieta_8e140_relaxed_model_1;1.7653;1.6163
1A6D_A;1A6E_A;1A6D_A_Julieta_8e140_relaxed_model_2;1.8210;1.7023
1A6D_A;1A6E_A;1A6D_A_Julieta_8e140_relaxed_model_3;1.8910;1.7832
1A6D_A;1A6E_A;1A6D_A_Julieta_8e140_relaxed_model_4;2.1387;2.0401
1A6D_A;1A6E_A;1A6D_A_Julieta_8e140_relaxed_model_5;1.7381;1.5827
1AEL-12_A;1URE-8_A;1AEL_1a8e9_relaxed_model_1;2.5034;1.5636
1AEL-12_A;1URE-8_A;1AEL_1a8e9_relaxed_model_2;2.5326;1.5359
1AEL-12_A;1URE-8_A;1AEL_1a8e9_relaxed_model_3;2.5041;1.5645
1AEL-12_A;1URE-8_A;1AEL_1a8e9_relaxed_model_4;2.5245;1.5542
1AEL-12_A;1URE-8_A;1AEL_1a8e9_relaxed_model_5;2.4961;1.5350
1AKZ_A;1SSP_E;1AKZ_A_tes_f478a_relaxed_model_1;0.5295;1.3836
1AKZ_A;1SSP_E;1AKZ_A_tes_f478a_relaxed_model_2;0.5354;1.3251
1AKZ_A;1SSP_E;1AKZ_A_tes_f478a_relaxed_model_3;0.5552;1.3030
1AKZ_A;1SSP_E;1AKZ_A_tes_f478a_relaxed_model_4;0.5145;1.3049
1AKZ_A;1SSP_E;1AKZ_A_tes_f478a_relaxed_model_5;0.5057;1.3632
1AW2_A;1AW1_B;1AW2_A_dfb9d_relaxed_model_1;1.0342;0.5456
1AW2_A;1AW1_B;1AW2_A_dfb9d_relaxed_model_2;1.0494;0.5565
1AW2_A;1AW1_B;1AW2_A_dfb9d_relaxed_model_3;1.0105;0.5600
1AW2_A;1AW1_B;1AW2_A_dfb9d_relaxed_model_4;1.1079;0.5467
1AW2_A;1AW1_B;1AW2_A_dfb9d_relaxed_model_5;1.1358;0.5781
1BV2-3_A;1UVB_A;1BV2_6e58e_relaxed_model_1;1.3671;1.4394
1BV2-3_A;1UVB_A;1BV2_6e58e_relaxed_model_2;1.6892;1.2411
1BV2-3_A;1UVB_A;1BV2_6e58e_relaxed_model_3;1.5691;1.1302
1BV2-3_A;1UVB_A;1BV2_6e58e_relaxed_model_4;1.5875;1.1641
1BV2-3_A;1UVB_A;1BV2_6e58e_relaxed_model_5;1.6082;1.1294
1C54-19_A;1RGH_B;1C54_60315_relaxed_model_1;1.5150;0.4235
1C54-19_A;1RGH_B;1C54_60315_relaxed_model_2;1.5409;0.4784
1C54-19_A;1RGH_B;1C54_60315_relaxed_model_3;1.5003;0.4257
1C54-19_A;1RGH_B;1C54_60315_relaxed_model_4;1.5819;0.5201
1C54-19_A;1RGH_B;1C54_60315_relaxed_model_5;1.4672;0.4407
1CBI_A;1CBR_B;1CBI_d066c_relaxed_model_1;1.5835;0.9497
1CBI_A;1CBR_B;1CBI_d066c_relaxed_model_2;1.6112;0.8983
1CBI_A;1CBR_B;1CBI_d066c_relaxed_model_3;1.5817;0.8336
1CBI_A;1CBR_B;1CBI_d066c_relaxed_model_4;1.6196;0.9124
1CBI_A;1CBR_B;1CBI_d066c_relaxed_model_5;1.5758;0.9914
1E5L_A;1E5Q_A;1E5L_A_julia_09a2b_relaxed_model_1;1.9900;0.7799
1E5L_A;1E5Q_A;1E5L_A_julia_09a2b_relaxed_model_2;1.8515;0.8849
1E5L_A;1E5Q_A;1E5L_A_julia_09a2b_relaxed_model_3;1.7243;1.0511
1E5L_A;1E5Q_A;1E5L_A_julia_09a2b_relaxed_model_4;1.6771;1.0993
1E5L_A;1E5Q_A;1E5L_A_julia_09a2b_relaxed_model_5;1.7195;1.0741
1EAL-2_A;1EIO-3_A;1EAL-2_A_a52d3_relaxed_model_1;1.4351;2.1235
1EAL-2_A;1EIO-3_A;1EAL-2_A_a52d3_relaxed_model_2;1.4526;2.0555
1EAL-2_A;1EIO-3_A;1EAL-2_A_a52d3_relaxed_model_3;1.3737;2.0992
1EAL-2_A;1EIO-3_A;1EAL-2_A_a52d3_relaxed_model_4;1.4331;1.9950
1EAL-2_A;1EIO-3_A;1EAL-2_A_a52d3_relaxed_model_5;1.4896;1.9986
1EVK_A;1EVL_A;1EVK_A_tes_7808e_relaxed_model_1;1.4212;1.1500
1EVK_A;1EVL_A;1EVK_A_tes_7808e_relaxed_model_2;1.4238;1.1919
1EVK_A;1EVL_A;1EVK_A_tes_7808e_relaxed_model_3;1.2152;0.9161
1EVK_A;1EVL_A;1EVK_A_tes_7808e_relaxed_model_4;1.3313;1.2176
1EVK_A;1EVL_A;1EVK_A_tes_7808e_relaxed_model_5;1.4193;1.1394
1EX6_B;1EX7_A;1EX6_B_b03f9_relaxed_model_1;0.9383;3.9682
1EX6_B;1EX7_A;1EX6_B_b03f9_relaxed_model_2;1.2242;3.6105
1EX6_B;1EX7_A;1EX6_B_b03f9_relaxed_model_3;1.1533;3.7722
1EX6_B;1EX7_A;1EX6_B_b03f9_relaxed_model_4;1.4388;3.2407
1EX6_B;1EX7_A;1EX6_B_b03f9_relaxed_model_5;1.4405;3.3245
1F3Y-17_A;1JKN-15_A;1F3Y-17_A_a4256_relaxed_model_1;5.4652;3.3689
1F3Y-17_A;1JKN-15_A;1F3Y-17_A_a4256_relaxed_model_2;4.9483;3.2596
1F3Y-17_A;1JKN-15_A;1F3Y-17_A_a4256_relaxed_model_3;3.0759;2.9799
1F3Y-17_A;1JKN-15_A;1F3Y-17_A_a4256_relaxed_model_4;5.7240;3.9503
1F3Y-17_A;1JKN-15_A;1F3Y-17_A_a4256_relaxed_model_5;5.3258;3.9205
1FMF-4_A;1ID8-11_A;1FMF_88836_relaxed_model_1;1.8455;4.6027
1FMF-4_A;1ID8-11_A;1FMF_88836_relaxed_model_2;1.8389;4.5937
1FMF-4_A;1ID8-11_A;1FMF_88836_relaxed_model_3;1.8223;4.5924
1FMF-4_A;1ID8-11_A;1FMF_88836_relaxed_model_4;1.8315;4.5830
1FMF-4_A;1ID8-11_A;1FMF_88836_relaxed_model_5;1.7776;4.5326
1FSF_A;1FQO_B;1FSF_A_tes_ec4d9_relaxed_model_1;1.0603;0.4263
1FSF_A;1FQO_B;1FSF_A_tes_ec4d9_relaxed_model_2;1.0539;0.4343
1FSF_A;1FQO_B;1FSF_A_tes_ec4d9_relaxed_model_3;1.0177;0.4487
1FSF_A;1FQO_B;1FSF_A_tes_ec4d9_relaxed_model_4;1.0150;0.4493
1FSF_A;1FQO_B;1FSF_A_tes_ec4d9_relaxed_model_5;1.0402;0.4885
1G6W_D;1K0B_C;1G6W_D_tes_a62f6_relaxed_model_1;1.0095;0.7439
1G6W_D;1K0B_C;1G6W_D_tes_a62f6_relaxed_model_2;1.0046;0.7139
1G6W_D;1K0B_C;1G6W_D_tes_a62f6_relaxed_model_3;0.9818;0.7517
1G6W_D;1K0B_C;1G6W_D_tes_a62f6_relaxed_model_4;0.9684;0.8797
1G6W_D;1K0B_C;1G6W_D_tes_a62f6_relaxed_model_5;0.9936;0.8334
1GH1-7_A;1CZ2-8_A;1GH1_A_ee632_relaxed_model_1;2.5741;2.7747
1GH1-7_A;1CZ2-8_A;1GH1_A_ee632_relaxed_model_2;2.5499;2.7421
1GH1-7_A;1CZ2-8_A;1GH1_A_ee632_relaxed_model_3;2.6099;2.7199
1GH1-7_A;1CZ2-8_A;1GH1_A_ee632_relaxed_model_4;2.5845;2.7249
1GH1-7_A;1CZ2-8_A;1GH1_A_ee632_relaxed_model_5;2.4503;2.7284
1GQN_A;1QFE_B;1GQN_c239b_relaxed_model_1;1.2638;0.3976
1GQN_A;1QFE_B;1GQN_c239b_relaxed_model_2;1.2262;0.3636
1GQN_A;1QFE_B;1GQN_c239b_relaxed_model_3;1.2223;0.3765
1GQN_A;1QFE_B;1GQN_c239b_relaxed_model_4;1.2169;0.3937
1GQN_A;1QFE_B;1GQN_c239b_relaxed_model_5;1.2313;0.4061
1GQZ_A;2GKE_A;1GQZ_2aa6f_relaxed_model_1;1.8084;2.1890
1GQZ_A;2GKE_A;1GQZ_2aa6f_relaxed_model_2;1.7893;2.1588
1GQZ_A;2GKE_A;1GQZ_2aa6f_relaxed_model_3;1.8300;2.4261
1GQZ_A;2GKE_A;1GQZ_2aa6f_relaxed_model_4;1.8665;2.6242
1GQZ_A;2GKE_A;1GQZ_2aa6f_relaxed_model_5;1.5826;2.5835
1GUD_A;1RPJ_A;1GUD_A_cbee3_relaxed_model_1;3.9105;0.9211
1GUD_A;1RPJ_A;1GUD_A_cbee3_relaxed_model_2;3.8445;0.9814
1GUD_A;1RPJ_A;1GUD_A_cbee3_relaxed_model_3;3.9072;0.9520
1GUD_A;1RPJ_A;1GUD_A_cbee3_relaxed_model_4;3.5723;1.2712
1GUD_A;1RPJ_A;1GUD_A_cbee3_relaxed_model_5;3.4612;1.3009
1HOO_B;1CG0_A;1HOO_27db7_relaxed_model_1;1.7495;0.8680
1HOO_B;1CG0_A;1HOO_27db7_relaxed_model_2;1.5937;1.1953
1HOO_B;1CG0_A;1HOO_27db7_relaxed_model_3;1.6731;1.1493
1HOO_B;1CG0_A;1HOO_27db7_relaxed_model_4;1.7398;1.0878
1HOO_B;1CG0_A;1HOO_27db7_relaxed_model_5;1.6818;1.2030
1HSI_B;1HSH_D;1HSI_31771_relaxed_model_1;1.5102;1.3310
1HSI_B;1HSH_D;1HSI_31771_relaxed_model_2;1.5075;1.2964
1HSI_B;1HSH_D;1HSI_31771_relaxed_model_3;1.3902;1.0730
1HSI_B;1HSH_D;1HSI_31771_relaxed_model_4;1.5526;1.2633
1HSI_B;1HSH_D;1HSI_31771_relaxed_model_5;1.2830;0.9761
1HW1_B;1H9G_A;1HW1_B_c0c4b_relaxed_model_1;0.8338;1.7477
1HW1_B;1H9G_A;1HW1_B_c0c4b_relaxed_model_2;0.8903;1.3297
1HW1_B;1H9G_A;1HW1_B_c0c4b_relaxed_model_3;0.7504;1.5351
1HW1_B;1H9G_A;1HW1_B_c0c4b_relaxed_model_4;0.8340;1.6761
1HW1_B;1H9G_A;1HW1_B_c0c4b_relaxed_model_5;0.8766;1.6852
1I56_A;1EL1_A;1I56_daef7_relaxed_model_1;1.9708;0.7774
1I56_A;1EL1_A;1I56_daef7_relaxed_model_2;2.0470;0.9810
1I56_A;1EL1_A;1I56_daef7_relaxed_model_3;1.9998;0.9681
1I56_A;1EL1_A;1I56_daef7_relaxed_model_4;2.0152;0.9210
1I56_A;1EL1_A;1I56_daef7_relaxed_model_5;2.0068;0.9687
1IGP_A;2AU6_A;1IGP_76f26_relaxed_model_1;0.9814;0.7767
1IGP_A;2AU6_A;1IGP_76f26_relaxed_model_2;0.9697;0.8705
1IGP_A;2AU6_A;1IGP_76f26_relaxed_model_3;0.9258;0.7618
1IGP_A;2AU6_A;1IGP_76f26_relaxed_model_4;1.0544;0.8484
1IGP_A;2AU6_A;1IGP_76f26_relaxed_model_5;1.0119;0.7973
1IJA-15_A;2KID-4_A;1IJA_c5993_relaxed_model_1;3.3102;2.7049
1IJA-15_A;2KID-4_A;1IJA_c5993_relaxed_model_2;3.3785;2.4975
1IJA-15_A;2KID-4_A;1IJA_c5993_relaxed_model_3;3.3929;2.2742
1IJA-15_A;2KID-4_A;1IJA_c5993_relaxed_model_4;3.4955;2.0075
1IJA-15_A;2KID-4_A;1IJA_c5993_relaxed_model_5;3.4887;2.1609
1JEJ_A;1JG6_A;1JEJ_20406_relaxed_model_1;1.7475;1.2190
1JEJ_A;1JG6_A;1JEJ_20406_relaxed_model_2;1.5578;1.1606
1JEJ_A;1JG6_A;1JEJ_20406_relaxed_model_3;1.8603;2.5255
1JEJ_A;1JG6_A;1JEJ_20406_relaxed_model_4;2.0704;2.1362
1JEJ_A;1JG6_A;1JEJ_20406_relaxed_model_5;2.0373;2.2716
1JFJ-3_A;1JFK_A;1JFJ_f1c73_relaxed_model_1;13.6561;13.0601
1JFJ-3_A;1JFK_A;1JFJ_f1c73_relaxed_model_2;13.5068;13.1616
1JFJ-3_A;1JFK_A;1JFJ_f1c73_relaxed_model_3;13.4546;13.3195
1JFJ-3_A;1JFK_A;1JFJ_f1c73_relaxed_model_4;13.5962;13.1431
1JFJ-3_A;1JFK_A;1JFJ_f1c73_relaxed_model_5;13.6637;13.1963
1JM4-15_B;1WUM_A;1JM4_B_b5818_relaxed_model_1;2.7627;4.3327
1JM4-15_B;1WUM_A;1JM4_B_b5818_relaxed_model_2;3.0858;3.8858
1JM4-15_B;1WUM_A;1JM4_B_b5818_relaxed_model_3;3.3565;3.6638
1JM4-15_B;1WUM_A;1JM4_B_b5818_relaxed_model_4;3.0131;3.9534
1JM4-15_B;1WUM_A;1JM4_B_b5818_relaxed_model_5;3.3220;3.7337
1JSP-15_B;2L84-18_A;1JSP_45dbc_relaxed_model_1;5.4221;4.2627
1JSP-15_B;2L84-18_A;1JSP_45dbc_relaxed_model_2;5.3286;4.2786
1JSP-15_B;2L84-18_A;1JSP_45dbc_relaxed_model_3;5.3364;4.1640
1JSP-15_B;2L84-18_A;1JSP_45dbc_relaxed_model_4;5.1320;4.1172
1JSP-15_B;2L84-18_A;1JSP_45dbc_relaxed_model_5;5.2644;4.3054
1JYU_A;1JYR_A;1JYU_8a2f6_relaxed_model_1;12.8145;0.6785
1JYU_A;1JYR_A;1JYU_8a2f6_relaxed_model_2;12.8343;0.7450
1JYU_A;1JYR_A;1JYU_8a2f6_relaxed_model_3;12.7466;0.5928
1JYU_A;1JYR_A;1JYU_8a2f6_relaxed_model_4;12.7489;0.7419
1JYU_A;1JYR_A;1JYU_8a2f6_relaxed_model_5;12.7436;0.5910
1K2H-4_A;1ZFS-13_B;1K2H_f0ed9_relaxed_model_1;6.4483;2.2134
1K2H-4_A;1ZFS-13_B;1K2H_f0ed9_relaxed_model_2;6.4827;2.1310
1K2H-4_A;1ZFS-13_B;1K2H_f0ed9_relaxed_model_3;6.4098;2.2146
1K2H-4_A;1ZFS-13_B;1K2H_f0ed9_relaxed_model_4;6.4193;2.1455
1K2H-4_A;1ZFS-13_B;1K2H_f0ed9_relaxed_model_5;6.5136;2.2220
1K5H_A;1Q0Q_A;1K5H_A_Tomas_be661_relaxed_model_1;4.8627;1.0578
1K5H_A;1Q0Q_A;1K5H_A_Tomas_be661_relaxed_model_2;4.8462;1.0522
1K5H_A;1Q0Q_A;1K5H_A_Tomas_be661_relaxed_model_3;4.8721;1.4165
1K5H_A;1Q0Q_A;1K5H_A_Tomas_be661_relaxed_model_4;4.8695;1.3646
1K5H_A;1Q0Q_A;1K5H_A_Tomas_be661_relaxed_model_5;4.8604;1.3707
1K6W_A;1K70_A;1K6W_A_Tomas_7bd61_relaxed_model_1;1.1511;0.9530
1K6W_A;1K70_A;1K6W_A_Tomas_7bd61_relaxed_model_2;1.0187;0.8139
1K6W_A;1K70_A;1K6W_A_Tomas_7bd61_relaxed_model_3;1.0849;0.9031
1K6W_A;1K70_A;1K6W_A_Tomas_7bd61_relaxed_model_4;0.9174;1.0486
1K6W_A;1K70_A;1K6W_A_Tomas_7bd61_relaxed_model_5;0.9705;1.0128
1L0W_B;1G51_A;1L0W_B_740d0_relaxed_model_1;1.7762;1.0906
1L0W_B;1G51_A;1L0W_B_740d0_relaxed_model_2;1.6488;1.1779
1L0W_B;1G51_A;1L0W_B_740d0_relaxed_model_3;1.5358;1.1195
1L0W_B;1G51_A;1L0W_B_740d0_relaxed_model_4;1.7559;1.2164
1L0W_B;1G51_A;1L0W_B_740d0_relaxed_model_5;1.6312;1.1297
1LIP-2_A;1JTB-6_A;1LIP_0cedc_relaxed_model_1;1.6724;2.9919
1LIP-2_A;1JTB-6_A;1LIP_0cedc_relaxed_model_2;1.9583;2.9606
1LIP-2_A;1JTB-6_A;1LIP_0cedc_relaxed_model_3;1.8523;2.9221
1LIP-2_A;1JTB-6_A;1LIP_0cedc_relaxed_model_4;2.1876;2.9545
1LIP-2_A;1JTB-6_A;1LIP_0cedc_relaxed_model_5;1.9630;2.9145
1LMZ-9_A;1P7M-18_A;1LMZ_91a8b_relaxed_model_1;3.4480;2.2707
1LMZ-9_A;1P7M-18_A;1LMZ_91a8b_relaxed_model_2;3.3723;2.2829
1LMZ-9_A;1P7M-18_A;1LMZ_91a8b_relaxed_model_3;3.3725;2.3557
1LMZ-9_A;1P7M-18_A;1LMZ_91a8b_relaxed_model_4;3.4253;2.2348
1LMZ-9_A;1P7M-18_A;1LMZ_91a8b_relaxed_model_5;3.4158;2.3175
1MO7-3_A;1MO8-14_A;1MO7_f42b8_relaxed_model_1;4.2237;3.3910
1MO7-3_A;1MO8-14_A;1MO7_f42b8_relaxed_model_2;4.0817;3.4061
1MO7-3_A;1MO8-14_A;1MO7_f42b8_relaxed_model_3;4.0786;3.4159
1MO7-3_A;1MO8-14_A;1MO7_f42b8_relaxed_model_4;4.0241;3.4444
1MO7-3_A;1MO8-14_A;1MO7_f42b8_relaxed_model_5;3.9895;3.3362
1MUT-11_A;1PUN-7_A;1MUT_A_AgusGM_8c169_relaxed_model_1;3.7567;4.0506
1MUT-11_A;1PUN-7_A;1MUT_A_AgusGM_8c169_relaxed_model_2;3.9286;4.1432
1MUT-11_A;1PUN-7_A;1MUT_A_AgusGM_8c169_relaxed_model_3;3.8213;4.0421
1MUT-11_A;1PUN-7_A;1MUT_A_AgusGM_8c169_relaxed_model_4;3.8765;3.7346
1MUT-11_A;1PUN-7_A;1MUT_A_AgusGM_8c169_relaxed_model_5;3.7939;3.8886
1MX7-20_A;1MX8-25_A;1MX7_A_tes_a5007_relaxed_model_1;2.0035;1.5224
1MX7-20_A;1MX8-25_A;1MX7_A_tes_a5007_relaxed_model_2;1.9973;1.4927
1MX7-20_A;1MX8-25_A;1MX7_A_tes_a5007_relaxed_model_3;2.0637;1.5551
1MX7-20_A;1MX8-25_A;1MX7_A_tes_a5007_relaxed_model_4;2.0544;1.5220
1MX7-20_A;1MX8-25_A;1MX7_A_tes_a5007_relaxed_model_5;1.9808;1.4795
1NJG_B;1NJF_A;1NJG_4bdf4_relaxed_model_1;1.6255;0.8750
1NJG_B;1NJF_A;1NJG_4bdf4_relaxed_model_2;1.5079;0.8261
1NJG_B;1NJF_A;1NJG_4bdf4_relaxed_model_3;1.4878;0.7985
1NJG_B;1NJF_A;1NJG_4bdf4_relaxed_model_4;1.6267;1.0312
1NJG_B;1NJF_A;1NJG_4bdf4_relaxed_model_5;1.5755;0.9259
1NM4_A;1OT4-33_A;1NM4_A_julia_47a16_relaxed_model_1;2.3235;3.6799
1NM4_A;1OT4-33_A;1NM4_A_julia_47a16_relaxed_model_2;2.3194;3.6477
1NM4_A;1OT4-33_A;1NM4_A_julia_47a16_relaxed_model_3;2.3449;3.6233
1NM4_A;1OT4-33_A;1NM4_A_julia_47a16_relaxed_model_4;2.3152;3.6514
1NM4_A;1OT4-33_A;1NM4_A_julia_47a16_relaxed_model_5;2.3335;3.6688
1NTR-7_A;1KRX-4_A;1NTR-7_A_ba355_relaxed_model_1;4.2400;3.3893
1NTR-7_A;1KRX-4_A;1NTR-7_A_ba355_relaxed_model_2;4.3381;3.4873
1NTR-7_A;1KRX-4_A;1NTR-7_A_ba355_relaxed_model_3;4.2657;3.4190
1NTR-7_A;1KRX-4_A;1NTR-7_A_ba355_relaxed_model_4;4.3289;3.4881
1NTR-7_A;1KRX-4_A;1NTR-7_A_ba355_relaxed_model_5;4.1941;3.4282
1O1U-9_A;1O1V-5_A;1O1U-9_A_e89f5_relaxed_model_1;1.7889;1.8305
1O1U-9_A;1O1V-5_A;1O1U-9_A_e89f5_relaxed_model_2;1.6719;1.8906
1O1U-9_A;1O1V-5_A;1O1U-9_A_e89f5_relaxed_model_3;1.7669;1.7548
1O1U-9_A;1O1V-5_A;1O1U-9_A_e89f5_relaxed_model_4;1.6415;1.8158
1O1U-9_A;1O1V-5_A;1O1U-9_A_e89f5_relaxed_model_5;1.6706;1.8569
1ORM-9_A;1QJ8_A;1ORM_9_A_tes_4dc9b_relaxed_model_1;5.9711;0.7601
1ORM-9_A;1QJ8_A;1ORM_9_A_tes_4dc9b_relaxed_model_2;6.1058;0.7285
1ORM-9_A;1QJ8_A;1ORM_9_A_tes_4dc9b_relaxed_model_3;6.0477;0.8991
1ORM-9_A;1QJ8_A;1ORM_9_A_tes_4dc9b_relaxed_model_4;5.8529;1.0322
1ORM-9_A;1QJ8_A;1ORM_9_A_tes_4dc9b_relaxed_model_5;5.8180;1.0869
1OTJ_D;1GY9_A;1OTJ_47264_relaxed_model_1;0.8021;1.2223
1OTJ_D;1GY9_A;1OTJ_47264_relaxed_model_2;0.8959;1.1502
1OTJ_D;1GY9_A;1OTJ_47264_relaxed_model_3;0.9276;1.1618
1OTJ_D;1GY9_A;1OTJ_47264_relaxed_model_4;0.8968;1.1075
1OTJ_D;1GY9_A;1OTJ_47264_relaxed_model_5;0.8866;1.2082
1PDB_A;1YHO-9_A;1PDB_A_tes_a678f_relaxed_model_1;0.9563;1.6039
1PDB_A;1YHO-9_A;1PDB_A_tes_a678f_relaxed_model_2;0.8150;1.5469
1PDB_A;1YHO-9_A;1PDB_A_tes_a678f_relaxed_model_3;1.0543;1.6218
1PDB_A;1YHO-9_A;1PDB_A_tes_a678f_relaxed_model_4;0.9697;1.6305
1PDB_A;1YHO-9_A;1PDB_A_tes_a678f_relaxed_model_5;0.9788;1.5979
1PFL-19_A;1FIL_A;1PFL-19_A_tes_4d6f0_relaxed_model_1;2.0102;0.8494
1PFL-19_A;1FIL_A;1PFL-19_A_tes_4d6f0_relaxed_model_2;1.9948;0.7469
1PFL-19_A;1FIL_A;1PFL-19_A_tes_4d6f0_relaxed_model_3;2.0222;0.7882
1PFL-19_A;1FIL_A;1PFL-19_A_tes_4d6f0_relaxed_model_4;1.9600;0.8289
1PFL-19_A;1FIL_A;1PFL-19_A_tes_4d6f0_relaxed_model_5;2.0137;0.7806
1RF5_A;1RF4_A;1RF5_A_tes_8a9d2_relaxed_model_1;3.1798;0.7030
1RF5_A;1RF4_A;1RF5_A_tes_8a9d2_relaxed_model_2;3.3304;0.6260
1RF5_A;1RF4_A;1RF5_A_tes_8a9d2_relaxed_model_3;3.2076;0.6780
1RF5_A;1RF4_A;1RF5_A_tes_8a9d2_relaxed_model_4;3.3071;0.6287
1RF5_A;1RF4_A;1RF5_A_tes_8a9d2_relaxed_model_5;3.1400;0.7696
1RKA_A;1GQT_A;1RKA_A_Julieta_29b53_relaxed_model_1;1.1392;1.9927
1RKA_A;1GQT_A;1RKA_A_Julieta_29b53_relaxed_model_2;1.2840;2.1416
1RKA_A;1GQT_A;1RKA_A_Julieta_29b53_relaxed_model_3;0.9866;1.7676
1RKA_A;1GQT_A;1RKA_A_Julieta_29b53_relaxed_model_4;1.2309;2.0352
1RKA_A;1GQT_A;1RKA_A_Julieta_29b53_relaxed_model_5;0.8994;1.4749
1RKM_A;1B6H_A;1RKM_A_1807c_relaxed_model_1;2.8911;0.5996
1RKM_A;1B6H_A;1RKM_A_1807c_relaxed_model_2;2.9278;0.5923
1RKM_A;1B6H_A;1RKM_A_1807c_relaxed_model_3;2.8534;0.6106
1RKM_A;1B6H_A;1RKM_A_1807c_relaxed_model_4;2.8084;0.6514
1RKM_A;1B6H_A;1RKM_A_1807c_relaxed_model_5;2.8703;0.6114
1S2O_A;1TJ5_A;1S2O_A_tes_63fd6_relaxed_model_1;3.2508;0.6265
1S2O_A;1TJ5_A;1S2O_A_tes_63fd6_relaxed_model_2;3.2744;0.5773
1S2O_A;1TJ5_A;1S2O_A_tes_63fd6_relaxed_model_3;3.2362;0.5969
1S2O_A;1TJ5_A;1S2O_A_tes_63fd6_relaxed_model_4;3.1811;0.6710
1S2O_A;1TJ5_A;1S2O_A_tes_63fd6_relaxed_model_5;3.1553;0.6916
1SKT-10_A;1TNQ-33_A;1SKT_d1326_relaxed_model_1;5.1060;3.1041
1SKT-10_A;1TNQ-33_A;1SKT_d1326_relaxed_model_2;4.9690;3.2377
1SKT-10_A;1TNQ-33_A;1SKT_d1326_relaxed_model_3;4.8447;3.3201
1SKT-10_A;1TNQ-33_A;1SKT_d1326_relaxed_model_4;4.8692;3.2069
1SKT-10_A;1TNQ-33_A;1SKT_d1326_relaxed_model_5;4.2921;3.8921
1SYM-2_B;1XYD-15_B;1SYM_04dfe_relaxed_model_1;6.2942;2.0575
1SYM-2_B;1XYD-15_B;1SYM_04dfe_relaxed_model_2;6.3317;1.9142
1SYM-2_B;1XYD-15_B;1SYM_04dfe_relaxed_model_3;6.2462;1.9307
1SYM-2_B;1XYD-15_B;1SYM_04dfe_relaxed_model_4;6.2732;2.0004
1SYM-2_B;1XYD-15_B;1SYM_04dfe_relaxed_model_5;6.0983;1.9378
1TFU_A;3UC5_A;1TFU_be7b7_relaxed_model_1;1.1482;0.8757
1TFU_A;3UC5_A;1TFU_be7b7_relaxed_model_2;1.0600;0.6910
1TFU_A;3UC5_A;1TFU_be7b7_relaxed_model_3;1.0647;0.6807
1TFU_A;3UC5_A;1TFU_be7b7_relaxed_model_4;1.0173;0.7341
1TFU_A;3UC5_A;1TFU_be7b7_relaxed_model_5;1.0752;0.7019
1TJD_A;1EEJ_B;1TJD_86db7_relaxed_model_1;2.2926;2.8946
1TJD_A;1EEJ_B;1TJD_86db7_relaxed_model_2;2.2629;2.9649
1TJD_A;1EEJ_B;1TJD_86db7_relaxed_model_3;2.2759;2.8526
1TJD_A;1EEJ_B;1TJD_86db7_relaxed_model_4;2.3355;2.9053
1TJD_A;1EEJ_B;1TJD_86db7_relaxed_model_5;2.0548;2.7641
1URP_D;2DRI_A;1URP_D_tes_65d2e_relaxed_model_1;3.8540;0.5321
1URP_D;2DRI_A;1URP_D_tes_65d2e_relaxed_model_2;3.8862;0.4789
1URP_D;2DRI_A;1URP_D_tes_65d2e_relaxed_model_3;3.8335;0.5817
1URP_D;2DRI_A;1URP_D_tes_65d2e_relaxed_model_4;3.9161;0.4602
1URP_D;2DRI_A;1URP_D_tes_65d2e_relaxed_model_5;3.8551;0.5450
1VIY_C;1VHL_A;1VIY_C_tes_ad796_relaxed_model_1;2.7321;2.5596
1VIY_C;1VHL_A;1VIY_C_tes_ad796_relaxed_model_2;2.8272;2.5491
1VIY_C;1VHL_A;1VIY_C_tes_ad796_relaxed_model_3;2.7349;2.6411
1VIY_C;1VHL_A;1VIY_C_tes_ad796_relaxed_model_4;2.8080;2.5776
1VIY_C;1VHL_A;1VIY_C_tes_ad796_relaxed_model_5;2.8355;2.8102
1VR6_A;1RZM_A;1VR6_A_0c626_relaxed_model_1;1.8253;9.1704
1VR6_A;1RZM_A;1VR6_A_0c626_relaxed_model_2;1.7583;9.2503
1VR6_A;1RZM_A;1VR6_A_0c626_relaxed_model_3;1.6976;9.2077
1VR6_A;1RZM_A;1VR6_A_0c626_relaxed_model_4;1.7856;9.2133
1VR6_A;1RZM_A;1VR6_A_0c626_relaxed_model_5;2.2714;8.9035
1W0J_E;1E1R_F;1W0J_E_39697_relaxed_model_1;1.5210;2.7075
1W0J_E;1E1R_F;1W0J_E_39697_relaxed_model_2;1.6781;2.5809
1W0J_E;1E1R_F;1W0J_E_39697_relaxed_model_3;1.2741;2.9707
1W0J_E;1E1R_F;1W0J_E_39697_relaxed_model_4;1.4336;2.8109
1W0J_E;1E1R_F;1W0J_E_39697_relaxed_model_5;1.7529;2.4336
1W4U-9_A;1UR6-4_A;1W4U-9_A_bd51a_relaxed_model_1;2.2941;2.1711
1W4U-9_A;1UR6-4_A;1W4U-9_A_bd51a_relaxed_model_2;2.2866;2.1660
1W4U-9_A;1UR6-4_A;1W4U-9_A_bd51a_relaxed_model_3;2.3188;2.1652
1W4U-9_A;1UR6-4_A;1W4U-9_A_bd51a_relaxed_model_4;2.3063;2.1676
1W4U-9_A;1UR6-4_A;1W4U-9_A_bd51a_relaxed_model_5;2.2982;2.1512
1WD7_B;1WCW_A;1WD7_B_ef358_relaxed_model_1;3.8399;0.9226
1WD7_B;1WCW_A;1WD7_B_ef358_relaxed_model_2;2.2108;3.0701
1WD7_B;1WCW_A;1WD7_B_ef358_relaxed_model_3;3.7381;0.9756
1WD7_B;1WCW_A;1WD7_B_ef358_relaxed_model_4;8.3600;4.9977
1WD7_B;1WCW_A;1WD7_B_ef358_relaxed_model_5;2.5487;5.6828
1XSA-23_A;1XSC-20_A;1XSA_A_julia_2847f_relaxed_model_1;3.8031;2.8469
1XSA-23_A;1XSC-20_A;1XSA_A_julia_2847f_relaxed_model_2;3.7570;2.7987
1XSA-23_A;1XSC-20_A;1XSA_A_julia_2847f_relaxed_model_3;4.1944;2.8880
1XSA-23_A;1XSC-20_A;1XSA_A_julia_2847f_relaxed_model_4;3.6568;3.0690
1XSA-23_A;1XSC-20_A;1XSA_A_julia_2847f_relaxed_model_5;3.9137;2.6251
1Y3Q_A;1Y3N_A;1Y3Q_125b0_relaxed_model_1;3.2152;2.1324
1Y3Q_A;1Y3N_A;1Y3Q_125b0_relaxed_model_2;2.7007;2.4570
1Y3Q_A;1Y3N_A;1Y3Q_125b0_relaxed_model_3;2.8085;2.4348
1Y3Q_A;1Y3N_A;1Y3Q_125b0_relaxed_model_4;2.0614;3.1211
1Y3Q_A;1Y3N_A;1Y3Q_125b0_relaxed_model_5;2.3203;2.8772
1YL5_B;1YL7_A;1YL5_B_tes_bf63b_relaxed_model_1;1.4944;1.1652
1YL5_B;1YL7_A;1YL5_B_tes_bf63b_relaxed_model_2;1.8985;1.5077
1YL5_B;1YL7_A;1YL5_B_tes_bf63b_relaxed_model_3;2.1350;1.8400
1YL5_B;1YL7_A;1YL5_B_tes_bf63b_relaxed_model_4;2.2926;1.9714
1YL5_B;1YL7_A;1YL5_B_tes_bf63b_relaxed_model_5;2.4010;2.2466
1Z15_A;1Z17_A;1Z15_A_8b906_relaxed_model_1;6.2348;0.6012
1Z15_A;1Z17_A;1Z15_A_8b906_relaxed_model_2;6.2432;0.6048
1Z15_A;1Z17_A;1Z15_A_8b906_relaxed_model_3;6.1730;0.6651
1Z15_A;1Z17_A;1Z15_A_8b906_relaxed_model_4;6.1838;0.6859
1Z15_A;1Z17_A;1Z15_A_8b906_relaxed_model_5;6.1918;0.5974
1ZA1_A;1Q95_A;1ZA1_2f19f_relaxed_model_1;1.1528;2.3690
1ZA1_A;1Q95_A;1ZA1_2f19f_relaxed_model_2;1.0754;1.9028
1ZA1_A;1Q95_A;1ZA1_2f19f_relaxed_model_3;0.9596;2.0102
1ZA1_A;1Q95_A;1ZA1_2f19f_relaxed_model_4;1.0743;1.8460
1ZA1_A;1Q95_A;1ZA1_2f19f_relaxed_model_5;1.0061;2.0547
1ZOL_A;1O03_A;1ZOL_A_Tomas_2222e_relaxed_model_1;2.9550;0.8448
1ZOL_A;1O03_A;1ZOL_A_Tomas_2222e_relaxed_model_2;2.9739;0.8692
1ZOL_A;1O03_A;1ZOL_A_Tomas_2222e_relaxed_model_3;2.9532;0.8953
1ZOL_A;1O03_A;1ZOL_A_Tomas_2222e_relaxed_model_4;2.8893;1.0342
1ZOL_A;1O03_A;1ZOL_A_Tomas_2222e_relaxed_model_5;2.9213;1.0104
2AI6-18_A;2OZW-3_A;2AI6_18_A_tes_9b4bd_relaxed_model_1;2.5451;3.1691
2AI6-18_A;2OZW-3_A;2AI6_18_A_tes_9b4bd_relaxed_model_2;2.5672;3.2327
2AI6-18_A;2OZW-3_A;2AI6_18_A_tes_9b4bd_relaxed_model_3;2.5479;3.1836
2AI6-18_A;2OZW-3_A;2AI6_18_A_tes_9b4bd_relaxed_model_4;2.5029;3.1694
2AI6-18_A;2OZW-3_A;2AI6_18_A_tes_9b4bd_relaxed_model_5;2.5245;3.2226
2BNH_A;1DFJ_I;2BNH_05ef0_relaxed_model_1;1.1422;1.0009
2BNH_A;1DFJ_I;2BNH_05ef0_relaxed_model_2;1.0432;1.1046
2BNH_A;1DFJ_I;2BNH_05ef0_relaxed_model_3;0.9836;1.1748
2BNH_A;1DFJ_I;2BNH_05ef0_relaxed_model_4;1.1289;0.9635
2BNH_A;1DFJ_I;2BNH_05ef0_relaxed_model_5;1.2247;1.0265
2CG7_A;2CG6_A;2CG7_A_tes_68ab2_relaxed_model_1;1.0816;6.2730
2CG7_A;2CG6_A;2CG7_A_tes_68ab2_relaxed_model_2;1.0833;6.3447
2CG7_A;2CG6_A;2CG7_A_tes_68ab2_relaxed_model_3;1.0976;6.2715
2CG7_A;2CG6_A;2CG7_A_tes_68ab2_relaxed_model_4;1.1917;6.3764
2CG7_A;2CG6_A;2CG7_A_tes_68ab2_relaxed_model_5;1.1062;6.3262
2CGK_B;2CGJ_A;2CGK_B_4e89e_relaxed_model_1;1.6797;0.6073                                                                                                                         
2CGK_B;2CGJ_A;2CGK_B_4e89e_relaxed_model_2;1.6488;0.5785                                                                                                                         
2CGK_B;2CGJ_A;2CGK_B_4e89e_relaxed_model_3;1.5741;0.5685                                                                                                                         
2CGK_B;2CGJ_A;2CGK_B_4e89e_relaxed_model_4;1.5808;0.5710                                                                                                                         
2CGK_B;2CGJ_A;2CGK_B_4e89e_relaxed_model_5;1.5785;0.6131
2CJO-5_A;1ROE-10_A;2CJO_38cee_relaxed_model_1;1.4860;4.4444
2CJO-5_A;1ROE-10_A;2CJO_38cee_relaxed_model_2;1.4613;4.4551
2CJO-5_A;1ROE-10_A;2CJO_38cee_relaxed_model_3;1.4088;4.4749
2CJO-5_A;1ROE-10_A;2CJO_38cee_relaxed_model_4;1.4371;4.4337
2CJO-5_A;1ROE-10_A;2CJO_38cee_relaxed_model_5;1.3574;4.4159
2D9E-12_A;2RS9-13_B;2D9E_MCh_37eaf_relaxed_model_1;2.7523;3.5004
2D9E-12_A;2RS9-13_B;2D9E_MCh_37eaf_relaxed_model_2;2.7749;3.4950
2D9E-12_A;2RS9-13_B;2D9E_MCh_37eaf_relaxed_model_3;3.1917;3.2329
2D9E-12_A;2RS9-13_B;2D9E_MCh_37eaf_relaxed_model_4;2.8492;3.4160
2D9E-12_A;2RS9-13_B;2D9E_MCh_37eaf_relaxed_model_5;3.0480;3.2973
2F63-4_A;1EQM_A;2F63_A_7da39_relaxed_model_1;1.9469;4.0803
2F63-4_A;1EQM_A;2F63_A_7da39_relaxed_model_2;1.9221;4.0151
2F63-4_A;1EQM_A;2F63_A_7da39_relaxed_model_3;1.9446;4.0654
2F63-4_A;1EQM_A;2F63_A_7da39_relaxed_model_4;1.9049;4.0633
2F63-4_A;1EQM_A;2F63_A_7da39_relaxed_model_5;1.9592;4.0507
2FHM-12_A;2HLT-19_A;2FHM_97b41_relaxed_model_1;1.5112;0.8966
2FHM-12_A;2HLT-19_A;2FHM_97b41_relaxed_model_2;1.6617;0.9281
2FHM-12_A;2HLT-19_A;2FHM_97b41_relaxed_model_3;1.4910;0.8639
2FHM-12_A;2HLT-19_A;2FHM_97b41_relaxed_model_4;1.6161;0.9128
2FHM-12_A;2HLT-19_A;2FHM_97b41_relaxed_model_5;1.6868;0.9628
2IN2_A;2B0F_A;2IN2_A_b282b_relaxed_model_1;1.7310;1.6485
2IN2_A;2B0F_A;2IN2_A_b282b_relaxed_model_2;1.7215;1.6966
2IN2_A;2B0F_A;2IN2_A_b282b_relaxed_model_3;1.7029;1.6624
2IN2_A;2B0F_A;2IN2_A_b282b_relaxed_model_4;1.7413;1.6329
2IN2_A;2B0F_A;2IN2_A_b282b_relaxed_model_5;1.7183;1.6159
2JU3-3_A;2JU8-9_A;2JU3_A_tes_f07cb_relaxed_model_1;2.8421;1.8916
2JU3-3_A;2JU8-9_A;2JU3_A_tes_f07cb_relaxed_model_2;2.8072;1.8774
2JU3-3_A;2JU8-9_A;2JU3_A_tes_f07cb_relaxed_model_3;3.0296;2.0588
2JU3-3_A;2JU8-9_A;2JU3_A_tes_f07cb_relaxed_model_4;3.1361;1.8095
2JU3-3_A;2JU8-9_A;2JU3_A_tes_f07cb_relaxed_model_5;3.1357;1.7198
2JWW-13_A;1RTP_1;2JWW_A_7d679_relaxed_model_1;2.6978;0.4678
2JWW-13_A;1RTP_1;2JWW_A_7d679_relaxed_model_2;2.6607;0.4702
2JWW-13_A;1RTP_1;2JWW_A_7d679_relaxed_model_3;2.7124;0.4114
2JWW-13_A;1RTP_1;2JWW_A_7d679_relaxed_model_4;2.6653;0.4748
2JWW-13_A;1RTP_1;2JWW_A_7d679_relaxed_model_5;2.6567;0.4730
2K43-1_A;2K8R-1_A;2K43_1a006_relaxed_model_1;2.7815;4.0278
2K43-1_A;2K8R-1_A;2K43_1a006_relaxed_model_2;2.8252;4.1388
2K43-1_A;2K8R-1_A;2K43_1a006_relaxed_model_3;2.9048;4.1874
2K43-1_A;2K8R-1_A;2K43_1a006_relaxed_model_4;2.8142;4.0172
2K43-1_A;2K8R-1_A;2K43_1a006_relaxed_model_5;2.8372;4.1539
2KAX-5_A;2KAY-16_B;2KAX_A_9f46f_relaxed_model_1;5.1674;1.7438
2KAX-5_A;2KAY-16_B;2KAX_A_9f46f_relaxed_model_2;5.0753;1.7046
2KAX-5_A;2KAY-16_B;2KAX_A_9f46f_relaxed_model_3;5.0929;1.7045
2KAX-5_A;2KAY-16_B;2KAX_A_9f46f_relaxed_model_4;5.0220;1.7616
2KAX-5_A;2KAY-16_B;2KAX_A_9f46f_relaxed_model_5;5.0990;1.7338
2KE0-15_A;2KO7-12_A;2KE0_A_Tomas_a558a_relaxed_model_1;2.2598;4.7140
2KE0-15_A;2KO7-12_A;2KE0_A_Tomas_a558a_relaxed_model_2;2.2254;4.7196
2KE0-15_A;2KO7-12_A;2KE0_A_Tomas_a558a_relaxed_model_3;2.1132;4.7656
2KE0-15_A;2KO7-12_A;2KE0_A_Tomas_a558a_relaxed_model_4;2.1653;4.8767
2KE0-15_A;2KO7-12_A;2KE0_A_Tomas_a558a_relaxed_model_5;2.6832;3.5179
2KXL-8_A;2K0G-9_A;2KXL_A_tes_552d0_relaxed_model_1;5.4364;3.6213
2KXL-8_A;2K0G-9_A;2KXL_A_tes_552d0_relaxed_model_2;5.3351;3.4984
2KXL-8_A;2K0G-9_A;2KXL_A_tes_552d0_relaxed_model_3;5.3911;3.5157
2KXL-8_A;2K0G-9_A;2KXL_A_tes_552d0_relaxed_model_4;5.1912;3.4478
2KXL-8_A;2K0G-9_A;2KXL_A_tes_552d0_relaxed_model_5;5.0708;3.3627
2L50-24_A;2L51-15_B;2L50-24_A_EDU_25fb9_relaxed_model_1;4.6136;5.6024
2L50-24_A;2L51-15_B;2L50-24_A_EDU_25fb9_relaxed_model_2;4.2857;5.0159
2L50-24_A;2L51-15_B;2L50-24_A_EDU_25fb9_relaxed_model_3;4.2236;4.7567
2L50-24_A;2L51-15_B;2L50-24_A_EDU_25fb9_relaxed_model_4;3.0794;3.7477
2L50-24_A;2L51-15_B;2L50-24_A_EDU_25fb9_relaxed_model_5;4.0654;4.6587
2L68-9_A;2LKK-10_A;2L68_A_d1f9c_relaxed_model_1;1.4260;1.2966
2L68-9_A;2LKK-10_A;2L68_A_d1f9c_relaxed_model_2;1.4621;1.3047
2L68-9_A;2LKK-10_A;2L68_A_d1f9c_relaxed_model_3;1.4733;1.3135
2L68-9_A;2LKK-10_A;2L68_A_d1f9c_relaxed_model_4;1.4594;1.3352
2L68-9_A;2LKK-10_A;2L68_A_d1f9c_relaxed_model_5;1.3764;1.3148
2LAO_A;1LAH_E;2LAO_A_tes_15956_relaxed_model_1;4.6695;0.4492
2LAO_A;1LAH_E;2LAO_A_tes_15956_relaxed_model_2;4.6829;0.5268
2LAO_A;1LAH_E;2LAO_A_tes_15956_relaxed_model_3;4.6427;0.4765
2LAO_A;1LAH_E;2LAO_A_tes_15956_relaxed_model_4;4.6837;0.4966
2LAO_A;1LAH_E;2LAO_A_tes_15956_relaxed_model_5;4.6709;0.5174
2LHS-6_A;2BEM_A;2LHS_b7207_relaxed_model_1;1.4949;0.4387
2LHS-6_A;2BEM_A;2LHS_b7207_relaxed_model_2;1.4836;0.4515
2LHS-6_A;2BEM_A;2LHS_b7207_relaxed_model_3;1.4933;0.4414
2LHS-6_A;2BEM_A;2LHS_b7207_relaxed_model_4;1.4760;0.4309
2LHS-6_A;2BEM_A;2LHS_b7207_relaxed_model_5;1.4818;0.4352
2LKC-4_A;2LKD-18_A;2LKC_96caf_relaxed_model_1;7.9532;4.5863
2LKC-4_A;2LKD-18_A;2LKC_96caf_relaxed_model_2;7.9055;4.4809
2LKC-4_A;2LKD-18_A;2LKC_96caf_relaxed_model_3;8.2339;4.8803
2LKC-4_A;2LKD-18_A;2LKC_96caf_relaxed_model_4;7.9677;4.4970
2LKC-4_A;2LKD-18_A;2LKC_96caf_relaxed_model_5;7.6964;4.6339
2MCG_2;1A8J_H;2MCG_4718a_relaxed_model_1;3.0617;10.9826
2MCG_2;1A8J_H;2MCG_4718a_relaxed_model_2;2.2471;12.2010
2MCG_2;1A8J_H;2MCG_4718a_relaxed_model_3;3.0723;13.0363
2MCG_2;1A8J_H;2MCG_4718a_relaxed_model_4;2.6163;11.9047
2MCG_2;1A8J_H;2MCG_4718a_relaxed_model_5;3.0272;10.8017
2NLN-4_A;1RRO_A;2NLN_A_1c3e2_relaxed_model_1;3.9717;0.6401
2NLN-4_A;1RRO_A;2NLN_A_1c3e2_relaxed_model_2;3.9578;0.7072
2NLN-4_A;1RRO_A;2NLN_A_1c3e2_relaxed_model_3;3.9266;0.6464
2NLN-4_A;1RRO_A;2NLN_A_1c3e2_relaxed_model_4;3.9152;0.6400
2NLN-4_A;1RRO_A;2NLN_A_1c3e2_relaxed_model_5;3.9189;0.6062
2P3M-16_A;2VBT_A;2P3M_A_390ea_relaxed_model_1;2.0377;1.8674
2P3M-16_A;2VBT_A;2P3M_A_390ea_relaxed_model_2;2.0493;1.7229
2P3M-16_A;2VBT_A;2P3M_A_390ea_relaxed_model_3;2.0181;1.9043
2P3M-16_A;2VBT_A;2P3M_A_390ea_relaxed_model_4;2.0276;1.8169
2P3M-16_A;2VBT_A;2P3M_A_390ea_relaxed_model_5;2.0806;1.6330
2QMV-9_A;4PRG_D;2QMV-9_A_tes_64682_relaxed_model_1;3.9770;2.5817
2QMV-9_A;4PRG_D;2QMV-9_A_tes_64682_relaxed_model_2;4.1695;2.5477
2QMV-9_A;4PRG_D;2QMV-9_A_tes_64682_relaxed_model_3;3.8856;2.6804
2QMV-9_A;4PRG_D;2QMV-9_A_tes_64682_relaxed_model_4;4.1619;2.5537
2QMV-9_A;4PRG_D;2QMV-9_A_tes_64682_relaxed_model_5;3.9030;2.7981
2RCS_H;1AJ7_H;2RCS_H_tes_1ed8e_relaxed_model_1;5.3733;2.7525
2RCS_H;1AJ7_H;2RCS_H_tes_1ed8e_relaxed_model_2;5.2421;2.6841
2RCS_H;1AJ7_H;2RCS_H_tes_1ed8e_relaxed_model_3;5.2249;2.8576
2RCS_H;1AJ7_H;2RCS_H_tes_1ed8e_relaxed_model_4;5.2315;2.7584
2RCS_H;1AJ7_H;2RCS_H_tes_1ed8e_relaxed_model_5;5.2811;2.7185
2UZ5-9_A;2VCD-8_A;2UZ5_A_a9318_relaxed_model_1;3.1787;1.5615
2UZ5-9_A;2VCD-8_A;2UZ5_A_a9318_relaxed_model_2;3.1737;1.5376
2UZ5-9_A;2VCD-8_A;2UZ5_A_a9318_relaxed_model_3;3.1468;1.5068
2UZ5-9_A;2VCD-8_A;2UZ5_A_a9318_relaxed_model_4;3.1363;1.5080
2UZ5-9_A;2VCD-8_A;2UZ5_A_a9318_relaxed_model_5;3.1352;1.4862
4AKE_B;2ECK_B;4AKE_B_27f14_relaxed_model_1;6.8802;0.7563
4AKE_B;2ECK_B;4AKE_B_27f14_relaxed_model_2;5.8273;1.9446
4AKE_B;2ECK_B;4AKE_B_27f14_relaxed_model_3;6.4371;1.0078
4AKE_B;2ECK_B;4AKE_B_27f14_relaxed_model_4;6.7907;0.9298
4AKE_B;2ECK_B;4AKE_B_27f14_relaxed_model_5;5.5951;1.8453
6OY9_B;1A0R_B;6OY9_B_tes_01596_relaxed_model_1;1.2957;1.6886                                                                              
6OY9_B;1A0R_B;6OY9_B_tes_01596_relaxed_model_2;1.4821;1.9731                                                                                
6OY9_B;1A0R_B;6OY9_B_tes_01596_relaxed_model_3;1.3369;1.7751                                                                                
6OY9_B;1A0R_B;6OY9_B_tes_01596_relaxed_model_4;1.5920;2.1086                                                                                
6OY9_B;1A0R_B;6OY9_B_tes_01596_relaxed_model_5;1.3824;1.7400
